<?xml version="1.0" encoding="UTF-8" standalone="no"?>
<svg
   xmlns:dc="http://purl.org/dc/elements/1.1/"
   xmlns:cc="http://creativecommons.org/ns#"
   xmlns:rdf="http://www.w3.org/1999/02/22-rdf-syntax-ns#"
   xmlns:svg="http://www.w3.org/2000/svg"
   xmlns="http://www.w3.org/2000/svg"
   xmlns:sodipodi="http://sodipodi.sourceforge.net/DTD/sodipodi-0.dtd"
   xmlns:inkscape="http://www.inkscape.org/namespaces/inkscape"
   sodipodi:docname="weather_icon_mostly_cloudy_with_showers.svg"
   inkscape:version="1.0rc1 (09960d6f05, 2020-04-09)"
   id="svg6597"
   version="1.1"
   viewBox="0 0 198.64013 205.10532"
   height="205.10532mm"
   width="198.64014mm">
  <defs
     id="defs6591" />
  <sodipodi:namedview
     inkscape:window-maximized="1"
     inkscape:window-y="0"
     inkscape:window-x="0"
     inkscape:window-height="1080"
     inkscape:window-width="1920"
     showgrid="false"
     inkscape:document-rotation="0"
     inkscape:current-layer="layer1"
     inkscape:document-units="mm"
     inkscape:cy="424.98315"
     inkscape:cx="99.238574"
     inkscape:zoom="0.49497475"
     inkscape:pageshadow="2"
     inkscape:pageopacity="0.0"
     borderopacity="1.0"
     bordercolor="#666666"
     pagecolor="#ffffff"
     id="base" />
  <metadata
     id="metadata6594">
    <rdf:RDF>
      <cc:Work
         rdf:about="">
        <dc:format>image/svg+xml</dc:format>
        <dc:type
           rdf:resource="http://purl.org/dc/dcmitype/StillImage" />
        <dc:title></dc:title>
      </cc:Work>
    </rdf:RDF>
  </metadata>
  <g
     transform="translate(-12.357526,-53.157633)"
     id="layer1"
     inkscape:groupmode="layer"
     inkscape:label="Layer 1">
    <path
       style="fill:#ffff00;stroke:#f5e614;stroke-width:10;stroke-linecap:round;stroke-linejoin:miter;stroke-miterlimit:4;stroke-dasharray:none;stroke-opacity:1"
       d="m 111.95051,220.46942 v 25.78561"
       id="path1414"
       inkscape:connector-curvature="0"
       inkscape:transform-center-x="-0.0015402013"
       inkscape:transform-center-y="81.155895" />
    <path
       inkscape:connector-curvature="0"
       transform="scale(0.26458333)"
       d="m 588.53125,595.2207 c -28.71086,0.0328 -57.42172,0.0442 -86.13281,0.041 2.57816,11.14565 3.02506,22.76575 0.97461,34.06055 -0.54801,3.26889 -1.31713,6.47788 -2.25782,9.6289 23.66066,-16.39606 52.32296,-25.71931 81.10157,-26.16601 1.07909,-0.017 2.15899,-0.0166 3.23828,-0.01 a 166.6118,166.6118 0 0 0 3.07617,-17.55469 z m -133.54883,98.08594 c -10.1445,5.19661 -21.22198,8.5168 -32.62695,9.41406 -35.39809,0.18967 -70.79893,0.25739 -106.19922,0.29102 a 166.6118,166.6118 0 0 0 38.38086,24.09961 c 26.4484,-19.1284 62.16464,-24.89662 93.4043,-15.32031 1.89135,-6.31934 4.24578,-12.50588 7.04101,-18.48438 z"
       style="fill:#f5e614;fill-opacity:1;stroke:none;stroke-width:31.4857;stroke-linecap:round;stroke-miterlimit:4;stroke-dasharray:none;stroke-opacity:1;paint-order:normal"
       id="path1507" />
    <path
       inkscape:transform-center-y="57.38697"
       inkscape:transform-center-x="57.384795"
       inkscape:connector-curvature="0"
       id="path1414-9"
       d="m 63.680755,200.47671 -18.23318,18.23318"
       style="fill:#ffff00;stroke:#f5e614;stroke-width:10;stroke-linecap:round;stroke-linejoin:miter;stroke-miterlimit:4;stroke-dasharray:none;stroke-opacity:1" />
    <path
       inkscape:transform-center-y="0.001538722"
       inkscape:transform-center-x="81.155895"
       inkscape:connector-curvature="0"
       id="path1414-2"
       d="M 43.685875,152.20787 H 17.900262"
       style="fill:#ffff00;stroke:#f5e614;stroke-width:10;stroke-linecap:round;stroke-linejoin:miter;stroke-miterlimit:4;stroke-dasharray:none;stroke-opacity:1" />
    <path
       inkscape:transform-center-y="-57.384795"
       inkscape:transform-center-x="57.386973"
       inkscape:connector-curvature="0"
       id="path1414-0"
       d="M 63.678575,103.93813 45.445395,85.70495"
       style="fill:#ffff00;stroke:#f5e614;stroke-width:10;stroke-linecap:round;stroke-linejoin:miter;stroke-miterlimit:4;stroke-dasharray:none;stroke-opacity:1" />
    <path
       inkscape:transform-center-y="-81.155895"
       inkscape:transform-center-x="0.0015397987"
       inkscape:connector-curvature="0"
       id="path1414-93"
       d="M 111.94743,83.94324 V 58.157633"
       style="fill:#ffff00;stroke:#f5e614;stroke-width:10;stroke-linecap:round;stroke-linejoin:miter;stroke-miterlimit:4;stroke-dasharray:none;stroke-opacity:1" />
    <path
       inkscape:transform-center-y="-57.386973"
       inkscape:transform-center-x="-57.384791"
       inkscape:connector-curvature="0"
       id="path1414-1"
       d="M 160.21717,103.93595 178.45035,85.70277"
       style="fill:#ffff00;stroke:#f5e614;stroke-width:10;stroke-linecap:round;stroke-linejoin:miter;stroke-miterlimit:4;stroke-dasharray:none;stroke-opacity:1" />
    <path
       inkscape:transform-center-y="-0.0015412781"
       inkscape:transform-center-x="-81.155896"
       inkscape:connector-curvature="0"
       id="path1414-8"
       d="m 180.21206,152.20479 h 25.78561"
       style="fill:#ffff00;stroke:#f5e614;stroke-width:10;stroke-linecap:round;stroke-linejoin:miter;stroke-miterlimit:4;stroke-dasharray:none;stroke-opacity:1" />
    <path
       inkscape:transform-center-y="57.384795"
       inkscape:transform-center-x="-57.386971"
       inkscape:connector-curvature="0"
       id="path1414-7"
       d="m 160.21935,200.47454 18.23318,18.23317"
       style="fill:#ffff00;stroke:#f5e614;stroke-width:10;stroke-linecap:round;stroke-linejoin:miter;stroke-miterlimit:4;stroke-dasharray:none;stroke-opacity:1" />
    <g
       id="g2339"
       style="stroke:none"
       transform="matrix(0.87452733,0,0,0.84741376,69.554539,112.4385)" />
    <path
       inkscape:connector-curvature="0"
       transform="matrix(0.26458333,0,0,0.26458333,12.357714,53.157633)"
       d="m 537.17773,431.85547 c -35.16697,0.37167 -70.26069,15.20754 -92.85546,41.82422 -16.50156,18.23446 -26.06906,41.45115 -28.44727,65.35156 -24.23367,-14.55845 -56.07315,-17.36304 -81.99805,-4.79492 -37.27497,16.2737 -57.54454,60.69481 -44.89257,98.36328 6.11593,21.07453 21.7768,38.44293 41.36914,48.66601 10.36163,-19.51019 22.10372,-38.27137 32.73242,-57.63867 4.96788,-10.61423 15.13177,-19.8921 27.37109,-20.02929 17.20331,-0.71173 32.12532,17.57383 27.73438,34.2832 -5.00141,12.01217 -12.0419,23.05112 -18.41407,34.36914 -2.33401,2.2927 1.75226,2.23111 3.14063,3.40234 9.62664,-17.06029 19.46517,-34.00015 29.24609,-50.97265 4.72112,-10.64837 14.35514,-20.33028 26.55274,-20.96289 17.61105,-1.78519 33.50413,16.96723 29.05468,34.05273 -5.0149,12.05042 -12.04027,23.142 -18.44921,34.48633 -2.33477,2.29228 1.74549,2.2194 3.13281,3.38867 9.69781,-17.23563 19.72276,-34.2836 29.42969,-51.51367 4.89475,-10.30583 14.29532,-19.72924 26.23632,-20.44531 17.66858,-1.81108 33.66292,16.9352 29.19336,34.09765 -5.00273,12.05186 -12.05449,23.12798 -18.4414,34.48047 -2.33243,2.29591 1.75965,2.2279 3.14843,3.40235 9.60885,-17.07137 19.44282,-34.01383 29.22461,-50.98633 4.76489,-10.67807 14.46376,-20.41248 26.72266,-20.98633 17.59835,-1.64678 33.4305,17.15367 28.86328,34.2168 -5.0208,11.99425 -12.03404,23.03626 -18.40625,34.3457 -2.33318,2.29308 1.75214,2.23114 3.14063,3.40234 9.6297,-17.08134 19.48402,-34.03518 29.27734,-51.02343 4.73613,-10.59614 14.30758,-20.281 26.4707,-20.92579 17.63135,-1.78741 33.62746,17.00687 29.08594,34.12696 -7.77789,17.38643 -18.10685,33.50568 -27.49414,50.05468 -0.33863,0.53639 -0.65892,1.08302 -0.98828,1.625 31.18129,-6.73594 55.95578,-35.67132 55.19726,-67.10351 10e-4,-6.44512 -0.94004,-12.88899 -2.78906,-19.08008 -7.231,-26.51184 -32.57516,-46.0015 -60.10351,-49.25195 0.021,-1.17045 0.0287,-2.34221 0.01,-3.51563 0.47244,-45.62679 -28.63341,-89.49599 -71.66015,-108.01953 -15.06948,-6.94841 -31.49539,-10.41493 -47.99219,-10.67969 -1.13416,-0.0182 -2.26793,-0.0217 -3.40235,-0.01 z"
       style="fill:#edf3e7;fill-opacity:1;stroke:none;stroke-width:29.6377;stroke-linecap:round"
       id="rect2396" />
    <g
       transform="matrix(0.87452732,0,0,0.84741377,-7.0239141,61.89382)"
       style="stroke:none"
       id="g2339-4" />
    <path
       inkscape:connector-curvature="0"
       transform="matrix(0.26458333,0,0,0.26458333,12.357714,53.157633)"
       d="m 251.96094,222.87305 c -35.16696,0.37166 -70.26069,15.20754 -92.85547,41.82422 -16.50152,18.23442 -26.07099,41.45121 -28.44922,65.35156 -24.23339,-14.55724 -56.072012,-17.36264 -81.996094,-4.79492 -37.274985,16.2737 -57.5445457,60.69481 -44.8925779,98.36328 5.9768496,20.59529 21.0772899,37.63828 40.0468749,47.94531 10.530396,-20.58166 22.903077,-40.17261 34.160156,-60.35938 4.750504,-10.72157 14.602767,-20.35894 26.869141,-20.86328 17.52982,-1.48913 33.12149,17.22281 28.65625,34.20313 -5.0405,12.01066 -12.05959,23.07308 -18.44922,34.39844 -2.34343,2.30014 1.73231,2.19468 3.11719,3.35156 9.68861,-16.9033 19.40392,-33.79206 29.13672,-50.66992 4.73438,-10.74282 14.38024,-20.59089 26.69336,-21.24414 17.61713,-1.78689 33.56909,16.9923 29.05468,34.09179 -5.00319,12.03837 -12.0426,23.10483 -18.42968,34.44141 -2.33313,2.29349 1.75034,2.21943 3.13476,3.39648 9.69545,-17.18694 19.66714,-34.21701 29.38477,-51.39062 4.8988,-10.55792 14.64462,-20.12504 26.8418,-20.61328 17.48553,-1.35598 33.03274,17.15998 28.62695,34.15039 -5.03175,12.03704 -12.03811,23.13456 -18.44922,34.47265 -2.33998,2.29988 1.76167,2.21892 3.1543,3.38086 9.65435,-17.1665 19.59478,-34.17417 29.36328,-51.27343 4.82905,-10.53404 14.44833,-20.14252 26.60742,-20.67774 17.59421,-1.63691 33.40267,17.16191 28.8418,34.2168 -5.02579,11.99414 -12.03402,23.04271 -18.40821,34.35351 -2.3372,2.28768 1.71276,2.2051 3.08985,3.37305 9.77782,-17.05296 19.64126,-34.06138 29.36523,-51.14258 2.99408,-6.60528 7.87618,-12.84027 14.08203,-16.73828 -13.59903,0.24725 -27.21098,0.51191 -40.60351,-2.13867 -37.01559,-7.02471 -69.5161,-35.40686 -80.09571,-71.76172 -10.31176,-33.06948 -0.73788,-70.65256 22.11914,-96.30469 -5.39949,-0.79998 -10.85261,-1.24437 -16.31445,-1.33203 -1.13415,-0.0182 -2.26792,-0.0217 -3.40234,-0.01 z m 183.14844,171.48047 c -12.17456,-7.9e-4 -24.34903,9.3e-4 -36.52344,0.004 9.86929,6.23429 16.17182,18.59896 13.12304,30.18555 -7.75215,17.17765 -17.94688,33.13442 -27.21289,49.52344 -1.43106,2.26429 -2.77292,4.58185 -4.08203,6.91992 32.24885,-5.77958 58.26136,-35.35907 57.48438,-67.55664 0.001,-6.44386 -0.94076,-12.88618 -2.78906,-19.07617 z"
       style="fill:#edf3e7;fill-opacity:1;stroke:none;stroke-width:29.6377;stroke-linecap:round"
       id="rect2396-5" />
    <g
       transform="matrix(0.87452732,0,0,0.84741377,86.852811,18.837255)"
       style="stroke:none"
       id="g2339-0" />
    <path
       inkscape:connector-curvature="0"
       transform="matrix(0.26458333,0,0,0.26458333,12.357714,53.157633)"
       d="m 517.29102,115.08789 c -35.16696,0.37167 -70.26067,15.20754 -92.85547,41.82422 -16.50156,18.23447 -26.06906,41.45114 -28.44727,65.35156 -24.23367,-14.55846 -56.07315,-17.36307 -81.99805,-4.79492 -37.27492,16.2737 -57.54454,60.69481 -44.89257,98.36328 5.14612,17.73267 17.04986,32.84117 32.36718,43.27735 9.55583,-17.67858 20.09025,-34.82723 29.95118,-52.3379 4.7142,-10.73185 14.39215,-20.5066 26.67187,-21.14062 17.63943,-1.77725 33.53097,17.07379 28.98828,34.16406 -5.01736,12.01584 -12.05393,23.06629 -18.43555,34.39063 -2.33819,2.3009 1.76147,2.2188 3.1543,3.38086 9.66081,-17.11975 19.51584,-34.13033 29.31446,-51.17188 4.80448,-10.57648 14.45972,-20.19288 26.625,-20.78906 17.62744,-1.68851 33.42793,17.15214 28.88085,34.21875 -5.01762,12.00242 -12.0529,23.04157 -18.41796,34.36133 -2.33791,2.29704 1.73786,2.206 3.12109,3.37304 9.77885,-17.27629 19.81915,-34.40265 29.56055,-51.70117 4.90492,-10.41698 14.60025,-19.76654 26.6289,-20.30078 0.54863,-0.0447 1.09436,-0.0701 1.63867,-0.0762 16.87384,-0.1874 31.41175,17.87675 27.02149,34.36719 -5.03641,11.97687 -12.03335,23.01573 -18.40235,34.3164 -2.33305,2.27868 1.7045,2.22833 3.08985,3.38086 10.1876,-18.02192 20.83791,-35.78663 30.76953,-53.95312 5.17841,-9.69245 14.79962,-17.92185 26.23242,-18.09571 17.23246,-0.76512 32.29334,17.54463 27.86914,34.30664 -5.02843,12.00877 -12.04849,23.06739 -18.42968,34.39063 -2.34766,2.30373 1.74139,2.18272 3.125,3.34375 9.6964,-16.95931 19.43249,-33.89723 29.19531,-50.81836 4.76644,-10.67248 14.37967,-20.46171 26.64258,-21.10352 17.60337,-1.7354 33.50499,16.99769 29.03906,34.08985 -7.72755,17.39769 -18.1226,33.46394 -27.4668,50.02148 -0.9512,1.49735 -1.85278,3.02495 -2.73828,4.5625 0.58697,-0.0279 1.17376,-0.0521 1.76172,-0.10156 36.21513,-1.41245 67.22034,-33.43184 66.37305,-68.54297 10e-4,-6.44511 -0.94005,-12.88898 -2.78907,-19.08008 -7.231,-26.51183 -32.57516,-46.0015 -60.10351,-49.25195 0.021,-1.17044 0.0287,-2.34222 0.01,-3.51562 0.47244,-45.62684 -28.63337,-89.496 -71.66015,-108.01954 -15.06948,-6.94841 -31.49539,-10.41492 -47.99219,-10.67968 -1.13416,-0.0182 -2.26793,-0.0218 -3.40234,-0.01 z"
       style="fill:#edf3e7;fill-opacity:1;stroke:none;stroke-width:29.6377;stroke-linecap:round"
       id="rect2396-3" />
    <path
       inkscape:connector-curvature="0"
       d="m 115.83873,218.17854 c -0.74721,-0.0202 -1.47959,0.35995 -1.88102,1.05523 l -10.21385,17.6904 c -0.58388,1.01132 -0.23979,2.29552 0.77153,2.87941 1.01133,0.58389 2.29552,0.23979 2.87942,-0.77153 l 10.21384,-17.69039 c 0.58389,-1.01133 0.2398,-2.29553 -0.77153,-2.87942 -0.31604,-0.18246 -0.65875,-0.27453 -0.99839,-0.2837 z m 18.40146,0 c -0.74721,-0.0202 -1.47959,0.35995 -1.88102,1.05523 l -10.21333,17.6904 c -0.58389,1.01132 -0.2398,2.29552 0.77153,2.87941 1.01133,0.58389 2.29552,0.23979 2.87941,-0.77153 l 10.21333,-17.69039 c 0.58389,-1.01133 0.2398,-2.29553 -0.77153,-2.87942 -0.31604,-0.18246 -0.65875,-0.27453 -0.99839,-0.2837 z m 18.40199,0 c -0.74721,-0.0202 -1.4796,0.35995 -1.88103,1.05523 l -10.21385,17.6904 c -0.58389,1.01132 -0.23979,2.29552 0.77153,2.87941 1.01133,0.58389 2.29604,0.23979 2.87993,-0.77153 l 10.21333,-17.69039 c 0.58389,-1.01133 0.2398,-2.29553 -0.77153,-2.87942 -0.31604,-0.18246 -0.65874,-0.27453 -0.99838,-0.2837 z m 18.40197,0 c -0.74721,-0.0202 -1.48011,0.35995 -1.88154,1.05523 l -10.21333,17.6904 c -0.58389,1.01132 -0.23979,2.29552 0.77153,2.87941 1.01132,0.58388 2.29552,0.23979 2.87941,-0.77153 l 10.21385,-17.69039 c 0.58389,-1.01133 0.23979,-2.29553 -0.77153,-2.87942 -0.31604,-0.18246 -0.65875,-0.27453 -0.99839,-0.2837 z m 18.40146,0 c -0.74721,-0.0202 -1.47959,0.35995 -1.88102,1.05523 l -10.21333,17.6904 c -0.58389,1.01132 -0.2398,2.29552 0.77153,2.87941 1.01133,0.58389 2.29552,0.23979 2.87941,-0.77153 l 10.21333,-17.69039 c 0.58389,-1.01133 0.2398,-2.29553 -0.77153,-2.87942 -0.31604,-0.18246 -0.65875,-0.27453 -0.99839,-0.2837 z m -73.8234,18.17512 c -0.74721,-0.0202 -1.4796,0.35994 -1.88102,1.05523 l -10.21385,17.6904 c -0.58388,1.01131 -0.2398,2.29552 0.77153,2.87941 1.01133,0.58389 2.29553,0.23978 2.87941,-0.77153 l 10.21385,-17.6904 c 0.58389,-1.01132 0.2398,-2.29552 -0.77153,-2.87941 -0.31604,-0.18246 -0.65875,-0.27453 -0.99839,-0.2837 z m 18.40146,0 c -0.74721,-0.0202 -1.4796,0.35994 -1.88102,1.05523 l -10.21333,17.6904 c -0.58389,1.01131 -0.2398,2.29552 0.77153,2.87941 1.01133,0.58389 2.29552,0.23978 2.87941,-0.77153 l 10.21333,-17.6904 c 0.58389,-1.01132 0.2398,-2.29552 -0.77153,-2.87941 -0.31604,-0.18246 -0.65875,-0.27453 -0.99839,-0.2837 z m 18.40198,0 c -0.74721,-0.0202 -1.4796,0.35994 -1.88102,1.05523 l -10.21334,17.6904 c -0.58389,1.01132 -0.23979,2.29552 0.77153,2.87941 1.01133,0.58389 2.29553,0.23979 2.87942,-0.77153 l 10.21333,-17.6904 c 0.58389,-1.01132 0.2398,-2.29552 -0.77153,-2.87941 -0.31604,-0.18246 -0.65875,-0.27453 -0.99839,-0.2837 z m 18.40198,0 c -0.74721,-0.0202 -1.4796,0.35994 -1.88102,1.05523 l -10.21385,17.6904 c -0.58389,1.01132 -0.2398,2.29552 0.77153,2.87941 1.01133,0.58389 2.29552,0.23979 2.87941,-0.77153 l 10.21384,-17.6904 c 0.5839,-1.01132 0.2398,-2.29552 -0.77152,-2.87941 -0.31604,-0.18246 -0.65875,-0.27453 -0.99839,-0.2837 z"
       style="fill:#93ebf2;fill-opacity:1;stroke-width:7.9375;stroke-linecap:round;stroke-linejoin:bevel"
       id="rect864" />
    <path
       id="rect864-6"
       style="fill:#93ebf2;fill-opacity:1;stroke-width:7.9375;stroke-linecap:round;stroke-linejoin:bevel"
       d="m 40.510873,161.73293 c -0.74721,-0.0202 -1.47959,0.35995 -1.88102,1.05523 l -10.21385,17.6904 c -0.58388,1.01132 -0.23979,2.29552 0.77153,2.87941 1.01133,0.58389 2.29552,0.23979 2.87942,-0.77153 l 10.21384,-17.69039 c 0.58389,-1.01133 0.2398,-2.29553 -0.77153,-2.87942 -0.31604,-0.18246 -0.65875,-0.27453 -0.99839,-0.2837 z m 18.40146,0 c -0.74721,-0.0202 -1.47959,0.35995 -1.88102,1.05523 l -10.21333,17.6904 c -0.58389,1.01132 -0.2398,2.29552 0.77153,2.87941 1.01133,0.58389 2.29552,0.23979 2.87941,-0.77153 l 10.21333,-17.69039 c 0.58389,-1.01133 0.2398,-2.29553 -0.77153,-2.87942 -0.31604,-0.18246 -0.65875,-0.27453 -0.99839,-0.2837 z m 18.40199,0 c -0.74721,-0.0202 -1.4796,0.35995 -1.88103,1.05523 l -10.21385,17.6904 c -0.58389,1.01132 -0.23979,2.29552 0.77153,2.87941 1.01133,0.58389 2.29604,0.23979 2.87993,-0.77153 l 10.21333,-17.69039 c 0.58389,-1.01133 0.2398,-2.29553 -0.77153,-2.87942 -0.31604,-0.18246 -0.65874,-0.27453 -0.99838,-0.2837 z m 18.40197,0 c -0.74721,-0.0202 -1.4801,0.35995 -1.88154,1.05523 l -10.21333,17.6904 c -0.58389,1.01132 -0.23979,2.29552 0.77154,2.87941 1.01131,0.58388 2.29551,0.23979 2.87941,-0.77153 l 10.213842,-17.69039 c 0.583887,-1.01133 0.2398,-2.29553 -0.771532,-2.87942 -0.31604,-0.18246 -0.65875,-0.27453 -0.99839,-0.2837 z m 18.401447,0 c -0.7472,-0.0202 -1.47958,0.35995 -1.88102,1.05523 l -10.21334,17.6904 c -0.58389,1.01132 -0.2398,2.29552 0.77154,2.87941 1.01133,0.58389 2.29552,0.23979 2.87942,-0.77153 l 10.21332,-17.69039 c 0.58389,-1.01133 0.2398,-2.29553 -0.77153,-2.87942 -0.31604,-0.18246 -0.65874,-0.27453 -0.99839,-0.2837 z m -73.823387,18.17512 c -0.74721,-0.0202 -1.4796,0.35994 -1.88102,1.05523 l -10.21385,17.6904 c -0.58388,1.01131 -0.2398,2.29552 0.77153,2.87941 1.01133,0.58389 2.29553,0.23978 2.87941,-0.77153 l 10.21385,-17.6904 c 0.58389,-1.01132 0.2398,-2.29552 -0.77153,-2.87941 -0.31604,-0.18246 -0.65875,-0.27453 -0.99839,-0.2837 z m 18.40146,0 c -0.74721,-0.0202 -1.4796,0.35994 -1.88102,1.05523 l -10.21333,17.6904 c -0.58389,1.01131 -0.2398,2.29552 0.77153,2.87941 1.01133,0.58389 2.29552,0.23978 2.87941,-0.77153 l 10.21333,-17.6904 c 0.58389,-1.01132 0.2398,-2.29552 -0.77153,-2.87941 -0.31604,-0.18246 -0.65875,-0.27453 -0.99839,-0.2837 z m 18.40198,0 c -0.74721,-0.0202 -1.4796,0.35994 -1.88102,1.05523 l -10.21334,17.6904 c -0.58389,1.01132 -0.23979,2.29552 0.77153,2.87941 1.01133,0.58389 2.29553,0.23979 2.87942,-0.77153 l 10.21333,-17.6904 c 0.58389,-1.01132 0.2398,-2.29552 -0.77153,-2.87941 -0.31604,-0.18246 -0.65875,-0.27453 -0.99839,-0.2837 z m 18.40198,0 c -0.74721,-0.0202 -1.4796,0.35994 -1.88102,1.05523 l -10.21385,17.6904 c -0.58388,1.01132 -0.2398,2.29552 0.77153,2.87941 1.01133,0.58389 2.29552,0.23979 2.87941,-0.77153 l 10.213845,-17.6904 c 0.583897,-1.01132 0.239797,-2.29552 -0.771525,-2.87941 -0.31604,-0.18246 -0.65875,-0.27453 -0.99839,-0.2837 z"
       inkscape:connector-curvature="0" />
    <path
       inkscape:connector-curvature="0"
       d="m 107.60587,134.01859 c -0.74722,-0.0202 -1.4796,0.35995 -1.88103,1.05523 l -10.213881,17.6904 c -0.58388,1.01132 -0.23979,2.29552 0.77153,2.87941 1.011329,0.58389 2.29552,0.23979 2.879417,-0.77153 l 10.213884,-17.69039 c 0.58389,-1.01133 0.2398,-2.29553 -0.77153,-2.87942 -0.31604,-0.18246 -0.65875,-0.27453 -0.99839,-0.2837 z m 18.40146,0 c -0.74721,-0.0202 -1.47959,0.35995 -1.88102,1.05523 l -10.21333,17.6904 c -0.58389,1.01132 -0.2398,2.29552 0.77153,2.87941 1.01133,0.58389 2.29552,0.23979 2.87941,-0.77153 l 10.21333,-17.69039 c 0.58389,-1.01133 0.2398,-2.29553 -0.77153,-2.87942 -0.31604,-0.18246 -0.65875,-0.27453 -0.99839,-0.2837 z m 18.40199,0 c -0.74721,-0.0202 -1.4796,0.35995 -1.88103,1.05523 l -10.21385,17.6904 c -0.58389,1.01132 -0.23979,2.29552 0.77153,2.87941 1.01133,0.58389 2.29604,0.23979 2.87993,-0.77153 l 10.21333,-17.69039 c 0.58389,-1.01133 0.2398,-2.29553 -0.77153,-2.87942 -0.31604,-0.18246 -0.65874,-0.27453 -0.99838,-0.2837 z m 18.40197,0 c -0.74721,-0.0202 -1.4801,0.35995 -1.88154,1.05523 l -10.21333,17.6904 c -0.58389,1.01132 -0.23979,2.29552 0.77154,2.87941 1.01131,0.58388 2.29551,0.23979 2.87941,-0.77153 l 10.21384,-17.69039 c 0.58389,-1.01133 0.2398,-2.29553 -0.77153,-2.87942 -0.31604,-0.18246 -0.65875,-0.27453 -0.99839,-0.2837 z m 18.40145,0 c -0.7472,-0.0202 -1.47958,0.35995 -1.88102,1.05523 l -10.21334,17.6904 c -0.58389,1.01132 -0.2398,2.29552 0.77154,2.87941 1.01133,0.58389 2.29552,0.23979 2.87942,-0.77153 l 10.21332,-17.69039 c 0.58389,-1.01133 0.2398,-2.29553 -0.77153,-2.87942 -0.31604,-0.18246 -0.65874,-0.27453 -0.99839,-0.2837 z m -73.82339,18.17512 c -0.74722,-0.0202 -1.47961,0.35994 -1.88103,1.05523 l -10.213881,17.6904 c -0.58388,1.01131 -0.2398,2.29552 0.77153,2.87941 1.011329,0.58389 2.295533,0.23978 2.879407,-0.77153 l 10.213894,-17.6904 c 0.58389,-1.01132 0.2398,-2.29552 -0.77153,-2.87941 -0.31604,-0.18246 -0.65875,-0.27453 -0.99839,-0.2837 z m 18.40146,0 c -0.74721,-0.0202 -1.4796,0.35994 -1.88102,1.05523 l -10.21333,17.6904 c -0.58389,1.01131 -0.2398,2.29552 0.77153,2.87941 1.01133,0.58389 2.29552,0.23978 2.87941,-0.77153 l 10.21333,-17.6904 c 0.58389,-1.01132 0.2398,-2.29552 -0.77153,-2.87941 -0.31604,-0.18246 -0.65875,-0.27453 -0.99839,-0.2837 z m 18.40198,0 c -0.74721,-0.0202 -1.4796,0.35994 -1.88102,1.05523 l -10.21334,17.6904 c -0.58389,1.01132 -0.23979,2.29552 0.77153,2.87941 1.01133,0.58389 2.29553,0.23979 2.87942,-0.77153 l 10.21333,-17.6904 c 0.58389,-1.01132 0.2398,-2.29552 -0.77153,-2.87941 -0.31604,-0.18246 -0.65875,-0.27453 -0.99839,-0.2837 z m 18.40198,0 c -0.74721,-0.0202 -1.4796,0.35994 -1.88102,1.05523 l -10.21385,17.6904 c -0.58388,1.01132 -0.2398,2.29552 0.77153,2.87941 1.01133,0.58389 2.29552,0.23979 2.87941,-0.77153 l 10.21385,-17.6904 c 0.5839,-1.01132 0.23979,-2.29552 -0.77153,-2.87941 -0.31604,-0.18246 -0.65875,-0.27453 -0.99839,-0.2837 z"
       style="fill:#93ebf2;fill-opacity:1;stroke-width:7.9375;stroke-linecap:round;stroke-linejoin:bevel"
       id="rect864-6-5" />
  </g>
</svg>
