<?xml version="1.0" encoding="UTF-8" standalone="no"?>
<svg
   xmlns:dc="http://purl.org/dc/elements/1.1/"
   xmlns:cc="http://creativecommons.org/ns#"
   xmlns:rdf="http://www.w3.org/1999/02/22-rdf-syntax-ns#"
   xmlns:svg="http://www.w3.org/2000/svg"
   xmlns="http://www.w3.org/2000/svg"
   xmlns:sodipodi="http://sodipodi.sourceforge.net/DTD/sodipodi-0.dtd"
   xmlns:inkscape="http://www.inkscape.org/namespaces/inkscape"
   inkscape:version="1.0rc1 (09960d6f05, 2020-04-09)"
   sodipodi:docname="weather_icon_night_clear.svg"
   id="svg3352"
   version="1.1"
   viewBox="0 0 132.29218 211.66667"
   height="800"
   width="500.00195">
  <defs
     id="defs3346" />
  <sodipodi:namedview
     inkscape:snap-grids="false"
     inkscape:window-maximized="1"
     inkscape:window-y="0"
     inkscape:window-x="0"
     inkscape:window-height="1080"
     inkscape:window-width="1920"
     units="px"
     showgrid="true"
     inkscape:document-rotation="0"
     inkscape:current-layer="layer1"
     inkscape:document-units="mm"
     inkscape:cy="495.41578"
     inkscape:cx="98.871762"
     inkscape:zoom="1"
     inkscape:pageshadow="2"
     inkscape:pageopacity="0.0"
     borderopacity="1.0"
     bordercolor="#666666"
     pagecolor="#ffffff"
     id="base">
    <inkscape:grid
       originy="3.3797764e-14"
       originx="3.3797762e-14"
       empspacing="4"
       spacingy="26.458333"
       spacingx="26.458333"
       id="grid3915"
       type="xygrid" />
  </sodipodi:namedview>
  <metadata
     id="metadata3349">
    <rdf:RDF>
      <cc:Work
         rdf:about="">
        <dc:format>image/svg+xml</dc:format>
        <dc:type
           rdf:resource="http://purl.org/dc/dcmitype/StillImage" />
        <dc:title></dc:title>
      </cc:Work>
    </rdf:RDF>
  </metadata>
  <g
     id="layer1"
     inkscape:groupmode="layer"
     inkscape:label="Layer 1">
    <path
       sodipodi:nodetypes="cssccccc"
       inkscape:connector-curvature="0"
       transform="scale(0.26458333)"
       d="M 400,0 C 179.0861,-5.5228476e-6 -5.5228476e-6,179.0861 0,400 -2.652165e-6,506.0866 42.142733,607.82816 117.15728,682.84272 192.17184,757.85727 293.9134,800 400,800 c 33.735,-6.4e-4 100,0 99.99805,-12.70312 C 323.39197,741.69644 246.03654,582.39821 246.03611,400 246.037,217.60067 323.39432,58.302066 500.00195,12.703125 500,0 433.7363,3.1220522e-4 400,0 Z"
       style="fill:#f3faf2;fill-opacity:1;stroke-width:37.7953;stroke-linecap:round"
       id="path3917" />
  </g>
</svg>
