<?xml version="1.0" encoding="UTF-8" standalone="no"?>
<svg
   xmlns:dc="http://purl.org/dc/elements/1.1/"
   xmlns:cc="http://creativecommons.org/ns#"
   xmlns:rdf="http://www.w3.org/1999/02/22-rdf-syntax-ns#"
   xmlns:svg="http://www.w3.org/2000/svg"
   xmlns="http://www.w3.org/2000/svg"
   xmlns:sodipodi="http://sodipodi.sourceforge.net/DTD/sodipodi-0.dtd"
   xmlns:inkscape="http://www.inkscape.org/namespaces/inkscape"
   width="191.3288mm"
   height="211.66667mm"
   viewBox="0 0 191.32879 211.66668"
   version="1.1"
   id="svg6597"
   inkscape:version="1.0rc1 (09960d6f05, 2020-04-09)"
   sodipodi:docname="weather_icon_night_mostly_cloudy.svg">
  <defs
     id="defs6591" />
  <sodipodi:namedview
     id="base"
     pagecolor="#ffffff"
     bordercolor="#666666"
     borderopacity="1.0"
     inkscape:pageopacity="0.0"
     inkscape:pageshadow="2"
     inkscape:zoom="0.7"
     inkscape:cx="93.796735"
     inkscape:cy="406.92869"
     inkscape:document-units="mm"
     inkscape:current-layer="layer1"
     inkscape:document-rotation="0"
     showgrid="false"
     inkscape:window-width="1920"
     inkscape:window-height="1080"
     inkscape:window-x="0"
     inkscape:window-y="0"
     inkscape:window-maximized="1" />
  <metadata
     id="metadata6594">
    <rdf:RDF>
      <cc:Work
         rdf:about="">
        <dc:format>image/svg+xml</dc:format>
        <dc:type
           rdf:resource="http://purl.org/dc/dcmitype/StillImage" />
        <dc:title />
      </cc:Work>
    </rdf:RDF>
  </metadata>
  <g
     inkscape:label="Layer 1"
     inkscape:groupmode="layer"
     id="layer1"
     transform="translate(-12.357713,-49.092765)">
    <path
       transform="matrix(0.26458333,0,0,0.26458333,12.357714,53.157633)"
       d="m 557.77539,-15.363281 c -160.0752,0 -298.18412,94.032775 -362.11523,229.871091 16.15203,-6.82289 33.51687,-10.80449 50.99804,-11.51758 15.15108,-0.55583 30.12736,1.6014 45.08594,3.8086 25.99821,-17.02541 59.83761,-21.80079 89.5957,-12.68164 4.19082,-13.97545 10.6116,-27.30476 19.15235,-39.14063 21.85358,-31.43323 57.29546,-52.12859 94.92383,-58.095701 C 535.37148,50.045935 589.05784,15.082772 657.77734,-2.6601562 657.77538,-15.363262 591.51168,-15.362979 557.77539,-15.363281 Z M 408.28906,492.38672 c -10.14686,5.20107 -21.22665,8.52555 -32.63281,9.42969 -66.73982,0.34995 -133.48613,0.3248 -200.23047,0.31836 19.00834,61.84917 52.91439,118.75225 99.50586,165.34375 75.01459,75.01453 176.75714,117.1582 282.84375,117.1582 33.73501,-6.4e-4 100.00001,-2e-5 99.99805,-12.70313 -48.14535,-12.43133 -88.89775,-33.32873 -122.73438,-60.82421 -42.39628,0.0221 -84.79216,-0.008 -127.1875,0.0117 -19.35987,-0.48827 -38.9565,1.73073 -58.10351,-2.04101 -37.1692,-6.98551 -69.85439,-35.48959 -80.36524,-72.02735 -10.74623,-34.73091 0.42063,-74.38599 25.82617,-99.96289 26.78967,-27.6308 69.4768,-37.41271 106.0254,-26.20898 1.89281,-6.32426 4.25523,-12.51198 7.05468,-18.49414 z"
       style="fill:#f3faf2;fill-opacity:1;stroke-width:37.7953;stroke-linecap:round"
       id="path3917"
       inkscape:connector-curvature="0" />
    <path
       style="fill:#ffff00;stroke:#f5e614;stroke-width:10;stroke-linecap:round;stroke-linejoin:miter;stroke-miterlimit:4;stroke-dasharray:none;stroke-opacity:1"
       d="m 160.21935,200.47454 18.23318,18.23317"
       id="path1414-7"
       inkscape:connector-curvature="0"
       inkscape:transform-center-x="-57.386971"
       inkscape:transform-center-y="57.384795" />
    <g
       transform="matrix(0.87452733,0,0,0.84741376,69.554539,112.4385)"
       style="stroke:none"
       id="g2339" />
    <path
       transform="matrix(0.26458333,0,0,0.26458333,12.357713,49.092765)"
       d="M 540.58008 447.22852 C 504.28711 446.64605 467.64591 461.56769 444.32227 489.04297 C 427.82071 507.27743 418.25321 530.49412 415.875 554.39453 C 391.64133 539.83608 359.80185 537.03149 333.87695 549.59961 C 296.60198 565.87331 276.33241 610.29442 288.98438 647.96289 C 299.27268 683.41475 336.56826 708.38126 374.16016 706.48242 L 648.96875 706.48242 C 650.60461 706.54186 652.24589 706.54746 653.89258 706.48242 L 654.29688 706.48242 L 654.29688 706.45898 C 655.11149 706.42169 655.92609 706.38702 656.74219 706.31836 C 692.95736 704.90591 723.96253 672.88652 723.11523 637.77539 C 723.11652 631.33028 722.17519 624.88641 720.32617 618.69531 C 713.09517 592.18348 687.75101 572.69381 660.22266 569.44336 C 660.24367 568.27291 660.2514 567.10115 660.23242 565.92773 C 660.70486 520.30094 631.59901 476.43174 588.57227 457.9082 C 573.50279 450.95979 557.07688 447.49327 540.58008 447.22852 z "
       style="fill:#edf3e7;fill-opacity:1;stroke:none;stroke-width:29.6377;stroke-linecap:round"
       id="rect2396" />
    <g
       id="g2339-4"
       style="stroke:none"
       transform="matrix(0.87452732,0,0,0.84741377,-7.0239141,61.89382)" />
    <path
       id="rect2396-5"
       style="fill:#edf3e7;fill-opacity:1;stroke:none;stroke-width:7.84164;stroke-linecap:round"
       d="m 79.922769,112.12856 c -9.602513,-0.15411 -19.297163,3.7939 -25.468212,11.0634 -4.366028,4.82453 -6.89795,10.9673 -7.52719,17.29094 -6.411751,-3.8516 -14.835719,-4.59387 -21.694799,-1.26866 -9.86234,4.30575 -15.225328,16.05884 -11.877828,26.02529 2.722077,9.37985 12.590033,15.98602 22.536092,15.48381 h 72.717528 c 0.42717,0.0153 0.85574,0.0168 1.28571,0 h 0.11627 v -0.007 c 0.21553,-0.01 0.43106,-0.019 0.64699,-0.0372 9.58193,-0.37371 17.78538,-8.84551 17.5612,-18.13533 2.6e-4,-1.70494 -0.24891,-3.40947 -0.73794,-5.04724 -4.12553,-2.6e-4 -8.25106,-0.001 -12.37651,0.001 -5.1731,-0.13172 -10.40942,0.46316 -15.525146,-0.54932 -9.793708,-1.85862 -18.392801,-9.36806 -21.19199,-18.98695 -2.728319,-8.74963 -0.195228,-18.69349 5.852359,-25.48062 -1.428615,-0.21166 -2.871423,-0.32924 -4.316534,-0.35243 z"
       inkscape:connector-curvature="0" />
    <g
       id="g2339-0"
       style="stroke:none"
       transform="matrix(0.87452732,0,0,0.84741377,86.852811,18.837255)" />
    <path
       transform="matrix(0.26458333,0,0,0.26458333,12.357713,49.092765)"
       d="M 520.69336 130.46094 C 484.4004 129.87847 447.75922 144.80011 424.43555 172.27539 C 407.93399 190.50986 398.36649 213.72653 395.98828 237.62695 C 371.75461 223.06849 339.91513 220.26388 313.99023 232.83203 C 276.71531 249.10573 256.44569 293.52684 269.09766 331.19531 C 279.38599 366.64717 316.68155 391.61368 354.27344 389.71484 L 629.08203 389.71484 C 630.71789 389.77428 632.35916 389.77989 634.00586 389.71484 L 634.41016 389.71484 L 634.41016 389.69141 C 635.22477 389.65411 636.03937 389.61945 636.85547 389.55078 C 673.0706 388.13833 704.07581 356.11894 703.22852 321.00781 C 703.2298 314.5627 702.28847 308.11883 700.43945 301.92773 C 693.20845 275.4159 667.86429 255.92623 640.33594 252.67578 C 640.35696 251.50534 640.36468 250.33357 640.3457 249.16016 C 640.81814 203.53332 611.71233 159.66417 568.68555 141.14062 C 553.61607 134.19221 537.19016 130.7257 520.69336 130.46094 z "
       style="fill:#edf3e7;fill-opacity:1;stroke:none;stroke-width:29.6377;stroke-linecap:round"
       id="rect2396-3" />
  </g>
</svg>
